{
  "characterNames": [
    "Ambed",
    "Here",
    "Erelm",
    "Alcard",
    "Sige",
    "Wealda",
    "Cenher",
    "Narder",
    "Badu",
    "Adbeod",
    "Graffolk",
    "Homas Merdaye",
    "Reder",
    "Ceolfre",
    "Gerey Haucey",
    "Walteph",
    "Heore",
    "Aegmulf",
    "Stomes",
    "Hamund Rythey",
    "Gryany",
    "Ames",
    "Helmens",
    "Symes",
    "Eadac",
    "Behrtio",
    "Rewis",
    "Finy",
    "Terey Forde",
    "Cyne",
    "Beorthwiu",
    "Tela",
    "Holes",
    "Stephye Faney",
    "Stephye",
    "Hyge",
    "Helwiu",
    "Harder Kelley",
    "Mesym",
    "Alas",
    "Anies Barne",
    "Robern",
    "Ascfed",
    "Aldberth",
    "Lesym",
    "Bere",
    "Cuine",
    "Ernard Lardaye",
    "Odwald",
    "Riffin",
    "Bertio",
    "Frichye",
    "Warda",
    "Warder",
    "Raffolk",
    "Tiny Ferre",
    "Andrer",
    "Rewalt Larke",
    "Chenry",
    "Robern Wete",
    "Aelard",
    "Andrel",
    "Walter Seve",
    "Liamas Hyde",
    "Anfric",
    "Ieheaf",
    "Cytio",
    "Gryany Dere",
    "Wulfa",
    "Tane",
    "Gery Garre",
    "Colmund",
    "Wictge",
    "Vyncis Foxe",
    "Burcher",
    "Richye",
    "Ralphye",
    "Tephye",
    "Gauwill",
    "Tilhelw",
    "Henrey Maley",
    "Helre",
    "Gery",
    "Ephel",
    "Deorne",
    "Rewilh Verne",
    "Adworht",
    "Gerey",
    "Camer",
    "Wine",
    "Holes Goodwe",
    "Maere",
    "Nathye Courte",
    "Lewis Vaughey",
    "Reward",
    "Thenrey",
    "Frarder Rowe",
    "Tiny Ileyn",
    "Ealwyht",
    "Ales",
    "Merey",
    "Joyce Nere",
    "Alburh",
    "Rix",
    "Cyna",
    "Joycie",
    "Wulfleue",
    "Ennen Wylcey",
    "Aedad",
    "Ride",
    "Wynneue",
    "Guswe",
    "Saethru",
    "Hilda",
    "Phily Floydye",
    "Alix Maycey",
    "Annel",
    "Beade",
    "Marger Nery",
    "Witha",
    "Hera",
    "Athel",
    "Cilia",
    "Aenhith",
    "Rose Sharcey",
    "Sabel",
    "Mildthre",
    "Jane",
    "Erild",
    "Efril",
    "Eanhild",
    "Ilin",
    "Bily Kneson",
    "Burga",
    "Cuthfleue",
    "Ehef",
    "Abet Love",
    "Arcow",
    "Ethed",
    "Tortga",
    "Ilian Carley",
    "Marger Beney",
    "Santa",
    "Aben Garre",
    "Cecie",
    "Ippan Parry",
    "Leada",
    "Mary",
    "Abeth Baile",
    "Aten",
    "Ealdith",
    "Belia",
    "Eryet",
    "Joane Gary",
    "Heru",
    "Aegith",
    "Breda",
    "Aelien",
    "Alil Nyney",
    "Riga",
    "Kather",
    "Ellet Parry",
    "Ideth",
    "Bretha",
    "Eadwith",
    "Joane Hoport",
    "Anor Meson",
    "Ecin Courte",
    "Wene Lloydaye",
    "Brythuia",
    "Wychtlu",
    "Ellys Evyng",
    "Brihctieue",
    "Mera",
    "Ennen",
    "Eadurh",
    "Balde",
    "Erix Flifolc",
    "Abet",
    "Ecix",
    "Stortga",
    "Maly",
    "Fricta",
    "Britha",
    "Aertrad",
    "Eryn Sore",
    "Elil Potte",
    "Ellen Albyn",
    "Alfrurh",
    "Fruna",
    "Arran",
    "Mary Sone",
    "Joyce Roby",
    "Audreyn Warne",
    "Rione",
    "Ayneth",
    "Wene Arrer",
    "Brida",
    "Eril Tepne",
    "Abet Cere",
    "Banain",
    "Arkund",
    "Dainan",
    "Irin",
    "Bali",
    "Ugmal",
    "Khori",
    "Fari",
    "Amin",
    "Gamin",
    "Turi",
    "Thali",
    "Thrimul",
    "Thatelch",
    "Duri",
    "Thudu",
    "Gamil",
    "Disanz",
    "Kari",
    "Luri",
    "Kunarv",
    "Khali",
    "Gili",
    "Dwari",
    "Glimin",
    "Atund",
    "Arvin",
    "Nainarv",
    "Dinain",
    "Ukat",
    "Dwoinan",
    "Throinarv",
    "Furi",
    "Ukraz",
    "Ukhlad",
    "Umun",
    "Dwali",
    "Geda",
    "Thakal",
    "Kurda",
    "Banarv",
    "Duli",
    "Frinan",
    "Sanzagh",
    "Ukhlat",
    "Ukrar",
    "Throda",
    "Narvi",
    "Muli",
    "Ahar",
    "Nanarv",
    "Bori",
    "Gamal",
    "Ugmat",
    "Telchak",
    "Zuri",
    "Azad",
    "Bari",
    "Thratur",
    "Thatur",
    "Thrinain",
    "Ukal",
    "Kunan",
    "Tharkal",
    "Frainan",
    "Arin",
    "Thakad",
    "Alin",
    "Udlat",
    "Funda",
    "Thimul",
    "Gedu",
    "Zigil",
    "Umund",
    "Undin",
    "Bifur",
    "Rinarv",
    "Sanzir",
    "Bifar",
    "Frukal",
    "Udlal",
    "Gwari",
    "Theli",
    "Thori",
    "Kheli",
    "Nainan",
    "Ukran",
    "Kada",
    "Sheli",
    "Urul",
    "Kali",
    "Ziri",
    "Ahal",
    "Ukag",
    "Shundu",
    "Thrinan",
    "Gimli",
    "Frasanz",
    "Shari",
    "Orin",
    "Thrari",
    "Gamil",
    "Turi",
    "Duri",
    "Zuri",
    "Bari",
    "Sanzig",
    "Anzin",
    "Ugmal",
    "Kali",
    "Telchal",
    "Kharkurd",
    "Telchud",
    "Thimin",
    "Arrak",
    "Ilmin",
    "Kheli",
    "Kari",
    "Thratur",
    "Kilmin",
    "Kurdu",
    "Grinan",
    "Arral",
    "Kunarv",
    "Abat",
    "Thrinarv",
    "Thari",
    "Ziri",
    "Urur",
    "Orin",
    "Thali",
    "Kunan",
    "Urin",
    "Kilmul",
    "Khali",
    "Thrakar",
    "Bifund",
    "Sanzur",
    "Anzis",
    "Tharkilm",
    "Iful",
    "Dwari",
    "Kadu",
    "Glukhim",
    "Bali",
    "Thatelch",
    "Thrakal",
    "Throri",
    "Tharkun",
    "Dwoinain",
    "Narvi",
    "Undin",
    "Bifur",
    "Tharkad",
    "Frakal",
    "Telchor",
    "Nainarv",
    "Thatur",
    "Umral",
    "Amin",
    "Gamin",
    "Atul",
    "Thakurd",
    "Rimal",
    "Dwali",
    "Askar",
    "Disanz",
    "Umur",
    "Gimli",
    "Udlas",
    "Gwari",
    "Shuda",
    "Zaghim",
    "Umrar",
    "Thori",
    "Kamal",
    "Gili",
    "Arud",
    "Arin",
    "Loinan",
    "Arvin",
    "Ukan",
    "Furi",
    "Umund",
    "Khakad",
    "Frinarv",
    "Dainan",
    "Mali",
    "Kada",
    "Gwoinain",
    "Linain",
    "Thrazir",
    "Arkud",
    "Ukral",
    "Kilmah",
    "Oril",
    "Dainain",
    "Ukhlat",
    "Ukag",
    "Nainan",
    "Engor",
    "Penlegal",
    "Miresta",
    "Orod",
    "Elwelmin",
    "Aldor",
    "Odred",
    "Elel",
    "Feanore",
    "Eanthindon",
    "Bornore",
    "Estor",
    "Rodanas",
    "Gonore",
    "Elroth",
    "Oron",
    "Elenel",
    "Angrod",
    "Fingelmir",
    "Galeguil",
    "Finasaer",
    "Motheli",
    "Mahturgal",
    "Malgali",
    "Eador",
    "Imbor",
    "Mirumaht",
    "Laduili",
    "Feanaeli",
    "Eneleth",
    "Ladanael",
    "Ebrir",
    "Ophirel",
    "Golungal",
    "Tatanor",
    "Eleron",
    "Eglin",
    "Celador",
    "Aldir",
    "Thingoli",
    "Galmabli",
    "Elethon",
    "Gelminas",
    "Ithinwel",
    "Caranwe",
    "Lionore",
    "Gwindiore",
    "Celaden",
    "Belasaer",
    "Mothire",
    "Finore",
    "Lebrandir",
    "Galeborn",
    "Omion",
    "Fingimli",
    "Alannaeth",
    "Golfindel",
    "Galodhilb",
    "Adhor",
    "Gwindore",
    "Galemmir",
    "Elios",
    "Almon",
    "Mineli",
    "Makili",
    "Enereg",
    "Elion",
    "Ellaldil",
    "Alangror",
    "Elurung",
    "Gwinduili",
    "Alas",
    "Eror",
    "Rodore",
    "Enegnor",
    "Eablurel",
    "Milionor",
    "Ebon",
    "Saerodor",
    "Odrenel",
    "Elegan",
    "Galegon",
    "Galmothir",
    "Elufil",
    "Eron",
    "Omiodreth",
    "Odredras",
    "Dorophir",
    "Lasaere",
    "Galadir",
    "Mablegal",
    "Ohimlil",
    "Danore",
    "Lionerdhilb",
    "Elroron",
    "Ethor",
    "Cirdore",
    "Galegelm",
    "Diorosaer",
    "Dirufean",
    "Nimredhien",
    "Nellaser",
    "Nimrielye",
    "Ebrias",
    "Atiel",
    "Lalwenye",
    "Alotel",
    "Nelaser",
    "Arwel",
    "Inden",
    "Indimel",
    "Mithrianye",
    "Ariellan",
    "Findiser",
    "Nellye",
    "Nerde",
    "Serode",
    "Amartas",
    "Ilaren",
    "Atieril",
    "Galaser",
    "Anindith",
    "Nelalwe",
    "Celye",
    "Ariendel",
    "Nerwenye",
    "Atielwis",
    "Nerdanye",
    "Anel",
    "Serinde",
    "Lenwingilm",
    "Ebriartas",
    "Celalwe",
    "Arwelwing",
    "Serielye",
    "Enwelyen",
    "Mirellye",
    "Laserie",
    "Ariel",
    "Arellas",
    "Imloth",
    "Indel",
    "Celenwe",
    "Indellan",
    "Ellanis",
    "Irielel",
    "Serianye",
    "Ebriatiel",
    "Mithienye",
    "Alwen",
    "Lenwende",
    "Induis",
    "Earwedhel",
    "Nerwingilm",
    "Nerdelye",
    "Nerdiser",
    "Finduilye",
    "Ithren",
    "Induing",
    "Alan",
    "Indis",
    "Elyen",
    "Niserie",
    "Ithrel",
    "Gilmarie",
    "Edhellas",
    "Adriellas",
    "Enedhel",
    "Nimrime",
    "Tatie",
    "Elladrien",
    "Endel",
    "Galebrie",
    "Finde",
    "Imroth",
    "Nerwende",
    "Marellye",
    "Lebrinde",
    "Enen",
    "Altalwel",
    "Serellye",
    "Nellothien",
    "Ellalwel",
    "Celothel",
    "Enden",
    "Indiriel",
    "Mirianye",
    "Celote",
    "Eanel",
    "Mithrellye",
    "Serilye",
    "Iris",
    "Imlotel",
    "Erdarwen",
    "Iriel",
    "Adriel",
    "Artaning",
    "Amarwen",
    "Erimel",
    "Gilmirie",
    "Rarder Wyney",
    "Hardo Galpsi",
    "Rewyn",
    "Fastolm",
    "Heobo Bolge",
    "Andrel Bedde",
    "Manard",
    "Fortolph Baggee",
    "Liamath",
    "Adoc",
    "Raffin",
    "Ralphye Wesav",
    "Rarder",
    "Andel",
    "Sembo Mugwich",
    "Wilhye",
    "Garand",
    "Fralphye",
    "Largo Ottort",
    "Arthund",
    "Anden Goodwe",
    "Hamund",
    "Baldo",
    "Ryany",
    "Halfo",
    "Thamond",
    "Rase",
    "Alim",
    "Rego",
    "Agoc Baggee",
    "Lime Chubburr",
    "Come",
    "Frarder Stere",
    "Blado Bolge",
    "Fastar Galpsi",
    "Helry",
    "Hamse",
    "Bardo",
    "Thamas Bysshey",
    "Cholex",
    "Lany",
    "Gerey",
    "Imad Gerow",
    "Hered",
    "Gylan Benthey",
    "Ibrar",
    "Garim",
    "Athaff",
    "Gery Sone",
    "Rase Banksi",
    "Isert",
    "Walteph",
    "Geoffry Deray",
    "Marme",
    "Ralphye Barde",
    "Garas Buck",
    "Illiard Ater",
    "Gauwalt",
    "Geoffry Nesav",
    "Harry",
    "Undald Chilly",
    "Kalanc",
    "Dabo",
    "Ibar Baggee",
    "Frase",
    "Hado",
    "Igric",
    "Hildo",
    "Adoc Bagge",
    "Arad Burrow",
    "Athyer Hawe",
    "Heras",
    "Wyny",
    "Gylew",
    "Dredo",
    "Gylas",
    "Herud",
    "Sengo Marchubb",
    "Wiso",
    "Harlas",
    "Andrew",
    "Eras",
    "Regrand",
    "Drewyn",
    "Adac",
    "Narder Love",
    "Hado Boffairb",
    "Gery",
    "Herand",
    "Theny",
    "Gauwyn Elwyn",
    "Reward Vaughey",
    "Raffolk Teray",
    "Rudo Fairbolg",
    "Charder Gery",
    "Piersym",
    "Wilim",
    "Holme",
    "Piersym Wyne",
    "Gauwyn",
    "Ennell",
    "Elil Pethey",
    "Primay",
    "Amunda",
    "Kater Hiley",
    "Niny",
    "Ellyn",
    "Diamay Took",
    "Cily",
    "Rose",
    "Cela",
    "Audreyn Jamas",
    "Elyn",
    "Malia Edward",
    "Melia",
    "Antilda Chilly",
    "Even",
    "Arran",
    "Mine Bophill",
    "Imond",
    "Dera Basi",
    "Manta Basi",
    "Sabeth",
    "Rimra",
    "Elix",
    "Pervy",
    "Elell",
    "Kathon",
    "Malia Garre",
    "Ilix Resby",
    "Bellia Basi",
    "Adarl Gamwes",
    "Bride Rysell",
    "Mera Colke",
    "Ellian",
    "Daldra",
    "Marget",
    "Brione",
    "Kathil",
    "Eveth",
    "Abel",
    "Ruba",
    "Belly",
    "Munda Ginsi",
    "Rose Cotton",
    "Mara",
    "Brose Phyne",
    "Elys",
    "Mara Derhubb",
    "Kather",
    "Ellel",
    "Wene",
    "Erix",
    "Ecil Porte",
    "Mary",
    "Monda",
    "Annan",
    "Aver",
    "Kater",
    "Perva Derhill",
    "Bethel",
    "Dela",
    "Sarra",
    "Inell",
    "Lanta",
    "Cora",
    "Ruby",
    "Pruda",
    "Mina",
    "Phone",
    "Bera",
    "Mera Cotton",
    "Ennet Dene",
    "Elin",
    "Suse",
    "Amina Bairnell",
    "Aman Gammidg",
    "Eryst Bolge",
    "Lala",
    "Ellan",
    "Alyn Harpar",
    "Abel Wreyne",
    "Gilda",
    "Alyn",
    "Joane",
    "Lica",
    "Ethyst Banksi",
    "Mine Mugwes",
    "Negild",
    "Rimay",
    "Daldra Tonell",
    "Aldanth",
    "Efrix",
    "Sybil",
    "Eran",
    "Raby",
    "Malia",
    "Aben Leynthey",
    "Enen Ratcley",
    "Sappha Gerow"
  ],
  "enemyNames": [
    "Hell Hound",
    "Basilisk",
    "Mouth of Grolantor",
    "Winter Wolf",
    "Brass Dragon Wyrmling",
    "Swarm of Rot Grubs",
    "Green Abishai",
    "Wereboar",
    "Cadaver Collector",
    "Firenewt Warlock of Imix",
    "Otyugh",
    "Drow Matron Mother",
    "Adult Silver Dragon",
    "Blink Dog",
    "Grung",
    "Duergar Despot",
    "Specter",
    "Wolf",
    "Giant Scorpion",
    "Young Remorhaz",
    "Displacer Beast",
    "Hunter Shark",
    "Wastrilith",
    "Lion",
    "Shoosuva",
    "Giant Constrictor Snake",
    "Oaken Bolter",
    "Lost Sorrowsworn",
    "Drow Favored Consort",
    "Hydroloth",
    "Hobgoblin Iron Shadow",
    "Death Tyrant",
    "Leviathan",
    "Rug of Smothering",
    "Violet Fungus",
    "Sibriex",
    "Manes",
    "Winter Eladrin",
    "Tlincalli",
    "Satyr",
    "Derro",
    "Cat",
    "Chain Devil",
    "Cave Fisher",
    "Merrow",
    "Death Knight",
    "Myconid Sprout",
    "Dao",
    "Drow Mage",
    "Beholder Zombie",
    "Drow Priestess of Lolth",
    "Gauth",
    "Hill Giant",
    "Drow Elite Warrior",
    "Ettin",
    "Ancient Copper Dragon",
    "Stegosaurus",
    "Swarm of Bats",
    "Rakshasa",
    "Orc War Chief",
    "Lonely Sorrowsworn",
    "Gnoll Flesh Gnawer",
    "Ice Mephit",
    "Griffon",
    "Nightwalker",
    "Dimetrodon",
    "Adult Bronze Dragon",
    "Goblin Boss",
    "Glabrezu",
    "Gynosphinx",
    "Soul Monger",
    "Venom Troll",
    "Myconid Sovereign",
    "Stone Giant",
    "Roc",
    "Green Dragon Wyrmling",
    "Baboon",
    "Wood Woad",
    "Giant Fire Beetle",
    "Armanite",
    "Elk",
    "Awakened Shrub",
    "Awakened Tree",
    "Phoenix",
    "Intellect Devourer",
    "Young Red Shadow Dragon",
    "Yuan-ti Abomination",
    "Young Faerie Dragon",
    "Adult Black Dragon",
    "Panther",
    "Pegasus",
    "Banshee",
    "Chuul",
    "Giant Sea Horse",
    "Tyrannosaurus Rex",
    "Death Kiss",
    "Yochlol",
    "Retriever",
    "Blue Slaad",
    "Barlgura",
    "Spawn of Kyuss",
    "Orc Nurtured One of Yurtrus",
    "Animated Armor",
    "Githyanki Supreme Commander",
    "Ancient Silver Dragon",
    "Giant Toad",
    "Galeb Duhr",
    "Adult White Dragon",
    "Marut",
    "Thorny",
    "Stench Kow",
    "Kobold Dragonshield",
    "Star Spawn Seer",
    "Shrieker",
    "Mind Flayer Lich",
    "Invisible Stalker",
    "Swarm of Poisonous Snakes",
    "Sahuagin",
    "Mind Flayer Arcanist",
    "Bodak",
    "Young Green Dragon",
    "Fire Snake",
    "Bronze Dragon Wyrmling",
    "Deer",
    "Mindwitness",
    "Adult Blue Dracolich",
    "Rot Troll",
    "Kraken",
    "Nagpa",
    "Gnoll Hunter",
    "Quaggoth Spore Servant",
    "Ancient White Dragon",
    "Lemure",
    "Elder Oblex",
    "Adult Kruthik",
    "Ancient Bronze Dragon",
    "Darkling Elder",
    "Mule",
    "Hobgoblin",
    "Allosaurus",
    "Morkoth (in lair)",
    "Gas Spore",
    "Deva",
    "Giant Spider",
    "Needle Blight",
    "Giant Bat",
    "Marilith",
    "Ki-rin",
    "Pixie",
    "Ghost",
    "Balor",
    "Adult Green Dragon",
    "Imp",
    "Death Tyrant (in lair)",
    "Nightmare",
    "Mammoth",
    "Empyrean",
    "Sword Wraith Commander",
    "Shambling Mound",
    "Giant Goat",
    "Dybbuk",
    "Barghest",
    "Duergar",
    "Efreeti",
    "Shadow Dancer",
    "Treant",
    "Giant Shark",
    "Giant Ape",
    "Thri-kreen",
    "Octopus",
    "Korred",
    "Duergar Screamer",
    "Saber-toothed Tiger",
    "Merfolk",
    "Sea Spawn",
    "Polar Bear",
    "Shadow",
    "Giant Weasel",
    "Derro Savant",
    "Fire Giant",
    "Kuo-toa Archpriest",
    "Ox",
    "Bheur Hag",
    "Vargouille",
    "Weasel",
    "Kruthik Hive Lord",
    "Guard Drake",
    "Storm Giant Quintessent",
    "Stone Defender",
    "Young Red Dragon",
    "Crocodile",
    "Duergar Stone Guard",
    "Kuo-toa Whip",
    "Ettercap",
    "Summer Eladrin",
    "Abyssal Wretch",
    "Orc Red Fang of Shargaas",
    "Adult Faerie Dragon",
    "Raven",
    "Goblin",
    "Lizardfolk",
    "Quaggoth Thonot",
    "Deathlock",
    "Lich",
    "Babau",
    "Gazer",
    "Quasit",
    "Mimic",
    "Eidolon",
    "Skeleton",
    "White Abishai",
    "Nalfeshnee",
    "Mastiff",
    "Githyanki Knight",
    "Slithering Tracker",
    "Giant Strider",
    "Darkmantle",
    "Crab",
    "Grell",
    "Ghast",
    "Harpy",
    "Dretch",
    "Kobold Inventor",
    "Frost Giant Everlasting One",
    "Githzerai Enlightened",
    "Ogre Zombie",
    "Goristro",
    "Tridrone",
    "Hyena",
    "Orc Claw of Luthic",
    "Wererat",
    "Dire Wolf",
    "Bat",
    "Nupperibo",
    "Spectator",
    "Gnoll Fang of Yeenoghu",
    "Sprite",
    "Yuan-ti Anathema",
    "Djinni",
    "Astral Dreadnought",
    "Purple Worm",
    "Spirit Troll",
    "Sahuagin Baron",
    "Pteranodon",
    "Red Abishai",
    "Camel",
    "Remorhaz",
    "Blood Hawk",
    "Female Steeder",
    "Blue Abishai",
    "Alhoon",
    "Specter (poltergeist)",
    "Badger",
    "Star Spawn Mangler",
    "Deep Rothe",
    "Githyanki Warrior",
    "Crawling Claw",
    "Lizardfolk Shaman",
    "Yuan-ti Malison",
    "Orc Hand of Yurtrus",
    "Wretched Sorrowsworn",
    "Hydra",
    "Skull Lord",
    "Grick",
    "Hungry Sorrowsworn",
    "Giant Eagle",
    "Axe Beak",
    "Hobgoblin Warlord",
    "Froghemoth",
    "Flesh Golem",
    "Cloud Giant Smiling One",
    "Stone Cursed",
    "Earth Elemental Myrmidon",
    "Revenant",
    "Reef Shark",
    "Githyanki Gish",
    "Steel Predator",
    "Drow",
    "Hobgoblin Captain",
    "Demilich",
    "Gray Ooze",
    "Killer Whale",
    "Sahuagin Priestess",
    "Tanarukk",
    "Guardian Naga",
    "Tortle",
    "Catoblepas",
    "Oblex Spawn",
    "Giant Wolf Spider",
    "Flail Snail",
    "Air Elemental",
    "Black Abishai",
    "Corpse Flower",
    "Pentadrone",
    "Warhorse",
    "Owlbear",
    "Deathlock Mastermind",
    "Shadow Demon",
    "Ankylosaurus",
    "Pit Fiend",
    "Morkoth",
    "Earth Elemental",
    "Copper Dragon Wyrmling",
    "Drow Arachnomancer",
    "Trapper",
    "Winged Kobold",
    "Tarrasque",
    "Maw Demon",
    "Manticore",
    "Boggle",
    "Vulture",
    "Kobold Scale Sorcerer",
    "Young Brass Dragon",
    "Smoke Mephit",
    "Medusa",
    "Young Blue Dragon",
    "Balhannoth",
    "Ogre Battering Ram",
    "Shadow Mastiff",
    "Vampire (warrior)",
    "Fire Elemental Myrmidon",
    "Tiger",
    "Alkilith",
    "Swarm of Rats",
    "Neogi Hatchling",
    "Maurezhi",
    "Neogi",
    "Troll",
    "Giant Badger",
    "Yuan-ti Pureblood",
    "Yeth Hound",
    "Swarm of Ravens",
    "Molydeus",
    "Deep Scion",
    "Couatl",
    "Piercer",
    "Incubus",
    "Iron Golem",
    "Young Gold Dragon",
    "Banderhobb",
    "Young Black Dragon",
    "Minotaur Skeleton",
    "Yuan-ti Pit Master",
    "Bugbear Chief",
    "Ochre Jelly",
    "Meenlock",
    "Adult Brass Dragon",
    "Plesiosaurus",
    "Green Hag",
    "Brontosaurus",
    "Death Dog",
    "Zaratan",
    "Drow House Captain",
    "Dragon Turtle",
    "Howler",
    "Giant Rat",
    "Stone Golem",
    "Fire Elemental",
    "Air Elemental Myrmidon",
    "Orc",
    "Worg",
    "Redcap",
    "Gnoll Witherling",
    "Arcanaloth",
    "Water Weird",
    "Deinonychus",
    "Gargoyle",
    "Steam Mephit",
    "Star Spawn Grue",
    "Star Spawn Hulk",
    "Frog",
    "Cyclops",
    "Ice Devil",
    "Lizard",
    "Water Elemental Myrmidon",
    "Grung Elite Warrior",
    "Nothic",
    "Centaur",
    "Fomorian",
    "Helmed Horror",
    "Young White Dragon",
    "Githyanki Kith'rak",
    "Blue Dragon Wyrmling",
    "Vampiric Mist",
    "Planetar",
    "Bulezau",
    "Carrion Crawler",
    "Neogi Master",
    "Death Slaad",
    "Magma Mephit",
    "Hippogriff",
    "Rhinoceros",
    "Yuan-ti Nightmare Speaker",
    "Canoloth",
    "Young Bronze Dragon",
    "Yuan-ti Mind Whisperer",
    "Sea Hag",
    "Spring Eladrin",
    "Warhorse Skeleton",
    "Triceratops",
    "Hook Horror",
    "Azer",
    "Kuo-toa",
    "Night Hag",
    "Draft Horse",
    "Drow Shadowblade",
    "Pony",
    "Androsphinx",
    "Boar",
    "Young Kruthik",
    "Salamander",
    "Boneclaw",
    "Drow Inquisitor",
    "Chasme",
    "Chimera",
    "Giant Hyena",
    "Ancient Brass Dragon",
    "Bullywug",
    "Gray Slaad",
    "Githzerai Anarch",
    "Sword Wraith Warrior",
    "Vampire Spawn",
    "Bone Naga",
    "Ogre Chain Brute",
    "Kobold",
    "Storm Giant",
    "Ancient Red Dragon",
    "Cranium Rat",
    "Lamia",
    "Fire Giant Dreadnought",
    "Will-o-wisp",
    "Skulk",
    "Giant Elk",
    "Gloom Weaver",
    "Goat",
    "Ogre",
    "Giant Octopus",
    "Choldrith",
    "Xorn",
    "Dolphin",
    "Nabassu",
    "Duergar Warlord",
    "Horned Devil",
    "Grung Wildling",
    "Magmin",
    "Yeti",
    "Giant Frog",
    "Angry Sorrowsworn",
    "Cow",
    "Mud Mephit",
    "Swarm of Insects",
    "Red Dragon Wyrmling",
    "Dryad",
    "Adult Blue Dragon",
    "Flying Sword",
    "Minotaur",
    "Phase Spider",
    "Demilich (in lair)",
    "Duergar Soulblade",
    "Adult Gold Dragon",
    "Solar",
    "Draegloth",
    "Ape",
    "Oni",
    "Hellfire Engine",
    "Peryton",
    "Water Elemental",
    "Vrock",
    "Jackal",
    "Marid",
    "Gray Render",
    "Jackalwere",
    "Amnizu",
    "Quetzalcoatlus",
    "Frost Giant",
    "Pseudodragon",
    "Bone Devil",
    "Nilbog",
    "Firenewt Warrior",
    "Ghoul",
    "Aurochs",
    "Ankheg",
    "Mezzoloth",
    "Oinoloth",
    "Eagle",
    "Star Spawn Larva Mage",
    "Darkling",
    "Silver Dragon Wyrmling",
    "Choker",
    "Mummy Lord",
    "Quaggoth",
    "Duodrone",
    "Homunculus",
    "Stone Giant Dreamwalker",
    "Giant Wasp",
    "Iron Cobra",
    "Zombie",
    "Aarakocra",
    "Rust Monster",
    "Chitine",
    "Wyvern",
    "Quipper",
    "Sea Horse",
    "Annis Hag",
    "Aboleth",
    "Half-Red Dragon Veteran",
    "Gnoll",
    "Black Bear",
    "Riding Horse",
    "Elder Tempest",
    "Duergar Mind Master",
    "Vine Blight",
    "Hezrou",
    "Orc Eye of Gruumsh",
    "Giant Crab",
    "Yuan-ti Broodguard",
    "Vampire",
    "Vegepygmy",
    "Spined Devil",
    "Abominable Yeti",
    "Male Steeder",
    "Adult Oblex",
    "Yagnoloth",
    "Adult Copper Dragon",
    "Giant Crocodile",
    "Cave Bear",
    "Adult Red Dragon",
    "Spider",
    "Werebear",
    "Xvart",
    "Gelatinous Cube",
    "Constrictor Snake",
    "Cloud Giant",
    "Duergar Xarrorn",
    "Red Slaad",
    "Orog",
    "Flumph",
    "Devourer",
    "Bulette",
    "Ancient Gold Dragon",
    "Lich (in lair)",
    "Erinyes",
    "Elder Brain",
    "Velociraptor",
    "Black Pudding",
    "Girallon",
    "Unicorn",
    "Spirit Naga",
    "Beholder",
    "Umber Hulk",
    "Mind Flayer",
    "Cambion",
    "Dire Troll",
    "Troglodyte",
    "Kenku",
    "Myconid Adult",
    "Xvart Warlock of Raxivort",
    "Wraith",
    "Ancient Blue Dragon",
    "Mummy Lord (in lair)",
    "Twig Blight",
    "Flying Snake",
    "Bronze Scout",
    "Scorpion",
    "Gibbering Mouther",
    "Rutterkin",
    "Rat",
    "Grimlock",
    "Elephant",
    "Roper",
    "Black Dragon Wyrmling",
    "Wight",
    "Githzerai Zerth",
    "Swarm of Quippers",
    "Ogre Howdah",
    "Poisonous Snake",
    "Nycaloth",
    "Weretiger",
    "Deathlock Wight",
    "Mummy",
    "Githzerai Monk",
    "Beholder (in lair)",
    "Lizard King/Queen",
    "Ulitharid",
    "Young Silver Dragon",
    "Hadrosaurus",
    "Young Copper Dragon",
    "Shield Guardian",
    "Ancient Green Dragon",
    "Orc Blade of Ilneval",
    "Allip",
    "Half-ogre",
    "Giant Lizard",
    "Giant Poisonous Snake",
    "Flameskull",
    "Drider",
    "Duergar Kavalrachni",
    "Barbed Devil",
    "Merrenoloth",
    "Dhergoloth",
    "Ancient Black Dragon",
    "Bugbear",
    "Quickling",
    "Ogre Bolt Launcher",
    "Leucrotta",
    "Grick Alpha",
    "Gold Dragon Wyrmling",
    "Hawk",
    "Succubus",
    "White Dragon Wyrmling",
    "Tortle Druid",
    "Giant Owl",
    "Giant Vulture",
    "Vegepygmy Chief",
    "Meazel",
    "Hobgoblin Devastator",
    "Autumn Eladrin",
    "Giff",
    "Clay Golem",
    "Frost Salamander",
    "Stirge",
    "Green Slaad",
    "Swarm of Cranium Rats",
    "Werewolf",
    "Owl",
    "Scarecrow",
    "Dust Mephit",
    "Flind",
    "Svirfneblin",
    "Merregon",
    "Behir",
    "Vampire (spellcaster)",
    "Bearded Devil",
    "Narzugon",
    "Rothe",
    "Duergar Hammerer",
    "Orthon",
    "Ultroloth",
    "Neothelid",
    "Slaad Tadpole",
    "Giant Centipede",
    "Cloaker",
    "Monodrone",
    "Giant Boar",
    "Gorgon",
    "Quadrone",
    "Brown Bear",
    "Gnoll Pack Lord",
    "Berbalang",
    "Doppelganger",
    "Cockatrice",
    "Champion",
    "Guard",
    "Warlock of the Fiend",
    "Bandit",
    "Master Thief",
    "Warlock of the Archfey",
    "Blackguard",
    "Swashbuckler",
    "Bandit Captain",
    "Martial Arts Adept",
    "Necromancer",
    "Enchanter",
    "Noble",
    "Apprentice Wizard",
    "Cult Fanatic",
    "Priest",
    "Bard",
    "War Priest",
    "Transmuter",
    "Conjurer",
    "Knight",
    "Commoner",
    "Scout",
    "Veteran",
    "Archdruid",
    "Illusionist",
    "Thug",
    "Diviner",
    "Acolyte",
    "Archer",
    "Abjurer",
    "Assassin",
    "Warlord",
    "Druid",
    "Spy",
    "Kraken Priest",
    "Mage",
    "Warlock of the Great Old One",
    "Evoker",
    "Berserker",
    "Archmage",
    "Tribal Warrior",
    "Cultist",
    "Gladiator"
  ]
}
